Airport Waiting Times
…
test_airport

## # A tibble: 5,793 x 21
##    airport terminal    date       hour   us_avg_wait us_max_wait non_us_avg_wait
##    <chr>   <chr>       <date>     <chr>        <dbl>       <dbl>           <dbl>
##  1 MSP     Terminal 1 2018-01-01 0800            6          12               6
##  2 MSP     Terminal 1 2018-01-01 1100           10          33              18
##  3 MSP     Terminal 1 2018-01-01 1200           16          49              30
##  4 MSP     Terminal 1 2018-01-01 1500           10          37              25
##  5 MSP     Terminal 1 2018-01-01 1600            9          16              12
##  6 MSP     Terminal 1 2018-01-01 1800            9          30              19
##  7 MSP     Terminal 1 2018-01-01 2000           12          23              13
##  8 MSP     Terminal 2 2018-01-01 1100            4          10               4
##  9 MSP     Terminal 2 2018-01-01 1200            6          13               8
## 10 MSP     Terminal 2 2018-01-01 1400           11          22              20
## #  with 5,783 more rows, and 14 more variables: non_us_max_wait <dbl>,
## #   all_avg_wait <dbl>, all_max_wait <dbl>, all_n_0_15 <dbl>,
## #   all_n_16_30 <dbl>, all_n_31_45 <dbl>, all_n_46_60 <dbl>, all_n_61_90 <dbl>,
## #   all_n_91_120 <dbl>, all_n_120_plus <dbl>, all_excluded <dbl>,
## #   all_total <dbl>, all_flights <dbl>, all_booths <dbl>
…
